…
tbl_data
```

    ## # A tibble: 43,274 × 40
    ##    pt_code_name   eye first_problem_c… severity_score gender race_ethnicity
    ##    <chr>        <dbl> <chr>                     <dbl> <chr>  <chr>         
    ##  1 00022808cb4…     1 362.02                       73 Male   Caucasian     
    ##  2 0002d4cc5f7…     1 362.02                       73 Male   Hispanic      
    ##  3 000340244d4…     1 E11.3411                     58 Male   Caucasian     
    ##  4 0003859ca8d…     1 E11.351                      78 Female Caucasian     
    ##  5 000406a5939…     1 362.05                       44 Male   Caucasian     
    ##  6 0007e418646…     1 362.02                       73 Female Black or Afri…
    ##  7 000944c41d8…     1 362.05                       44 Male   Caucasian     
    ##  8 00096924cfb…     1 E11.3211                     40 Male   Caucasian     
    ##  9 000aadb4949…     2 362.02                       73 Female Caucasian     
    ## 10 000b59b304e…     2 362.04                       35 Male   Caucasian     
    ## # … with 43,264 more rows, and 34 more variables: first_dr_age <dbl>,
    ## #   age_group <dbl>, insurance <chr>, region <chr>, smoke_status <chr>,
    ## #   new_class <dbl>, valid_class <dbl>, include_given_code <dbl>,
    ## #   vision_category <chr>, vision_threatening <dbl>, index_date <date>,
    ## #   baseline_va_letter <dbl>, proc_group_28 <chr>, proc_group_365 <chr>,
    ## #   proc_group_any <chr>, vegf_group_28 <chr>, vegf_group_365 <chr>,
    ## #   vegf_group_any <chr>, retina_speciality <dbl>, baseline_iop <dbl>, …
…
drug_sev_cat_race %>% 
  arrange(desc(vision_category, race_ethnicity))
```

    ## # A tibble: 108 × 5
    ##    vision_category    race_ethnicity            vegf_group_365   prop count
    ##    <chr>              <chr>                     <chr>           <dbl> <int>
    ##  1 8 - PDR with edema Black or African American Avastin        0.588    446
    ##  2 8 - PDR with edema Black or African American combo          0.182    138
    ##  3 8 - PDR with edema Black or African American Eylea          0.146    111
    ##  4 8 - PDR with edema Black or African American Lucentis       0.0831    63
    ##  5 8 - PDR with edema Caucasian                 Avastin        0.506   1848
    ##  6 8 - PDR with edema Caucasian                 combo          0.191    699
    ##  7 8 - PDR with edema Caucasian                 Eylea          0.209    762
    ##  8 8 - PDR with edema Caucasian                 Lucentis       0.0939   343
    ##  9 8 - PDR with edema Hispanic                  Avastin        0.678    729
    ## 10 8 - PDR with edema Hispanic                  combo          0.156    168
    ## # … with 98 more rows
…
drug_sev_cat_insurance %>% 
  arrange(desc(vision_category, insurance))
```

    ## # A tibble: 107 × 5
    ##    vision_category    insurance vegf_group_365   prop count
    ##    <chr>              <chr>     <chr>           <dbl> <int>
    ##  1 8 - PDR with edema Medicaid  Avastin        0.680    329
    ##  2 8 - PDR with edema Medicaid  combo          0.151     73
    ##  3 8 - PDR with edema Medicaid  Eylea          0.118     57
    ##  4 8 - PDR with edema Medicaid  Lucentis       0.0517    25
    ##  5 8 - PDR with edema Medicare  Avastin        0.528   1561
    ##  6 8 - PDR with edema Medicare  combo          0.185    547
    ##  7 8 - PDR with edema Medicare  Eylea          0.197    583
    ##  8 8 - PDR with edema Medicare  Lucentis       0.0890   263
    ##  9 8 - PDR with edema Private   Avastin        0.535    824
    ## 10 8 - PDR with edema Private   combo          0.192    296
    ## # … with 97 more rows
…
severity_race_vision <-
  timeseries_analysis %>% 
  group_by(race_ethnicity, baseline_va_letter) %>%
  summarize(avg_severity = mean(severity_score), count = n()) %>% 
  filter(count > 100) %>% 
  arrange(desc(avg_severity))
```

    ## `summarise()` has grouped output by 'race_ethnicity'. You can override using the `.groups` argument.

``` r
severity_race_vision
```

    ## # A tibble: 36 × 4
    ## # Groups:   race_ethnicity [3]
    ##    race_ethnicity            baseline_va_letter avg_severity count
    ##    <chr>                                  <dbl>        <dbl> <int>
    ##  1 Hispanic                                  40         65.6   140
    ##  2 Hispanic                                  35         64.1   373
    ##  3 Hispanic                                  50         64.0   348
    ##  4 Hispanic                                  55         63.9   355
    ##  5 Hispanic                                  61         63.3   616
    ##  6 Hispanic                                  85         62.5   374
    ##  7 Caucasian                                 45         62.4   161
    ##  8 Hispanic                                  65         62.3   847
    ##  9 Black or African American                 35         62.2   317
    ## 10 Hispanic                                  58         62.1   381
    ## # … with 26 more rows
…
    ## `summarise()` has grouped output by 'race_ethnicity'. You can override using the `.groups` argument.

``` r
severity_race_vision
```

    ## # A tibble: 31 × 4
    ## # Groups:   race_ethnicity [3]
    ##    race_ethnicity            baseline_va_r5 avg_severity count
    ##    <chr>                              <dbl>        <dbl> <int>
    ##  1 Hispanic                              40         65.9   144
    ##  2 Hispanic                              35         64.1   373
    ##  3 Hispanic                              50         64.0   359
    ##  4 Hispanic                              55         63.8   361
    ##  5 Hispanic                              60         62.9  1024
    ##  6 Caucasian                             25         62.6   147
    ##  7 Hispanic                              85         62.5   374
    ##  8 Caucasian                             45         62.3   175
    ##  9 Black or African American             35         62.2   317
    ## 10 Hispanic                              65         62.2   866
    ## # … with 21 more rows
…
    ## `summarise()` has grouped output by 'insurance'. You can override using the `.groups` argument.

``` r
severity_insurance_vision
```

    ## # A tibble: 44 × 4
    ## # Groups:   insurance [6]
    ##    insurance       baseline_va_r5 avg_severity count
    ##    <chr>                    <dbl>        <dbl> <int>
    ##  1 Medicaid                    35         65.9   133
    ##  2 Medicaid                    50         65.8   132
    ##  3 Medicaid                    55         63.4   103
    ##  4 Medicare                    25         63.3   155
    ##  5 Govt                        60         63.0   144
    ##  6 Unknown/Missing             65         62.8   203
    ##  7 Medicaid                    65         62.6   340
    ##  8 Private                     40         62.6   137
    ##  9 Private                     35         62.6   422
    ## 10 Medicaid                    70         62.4   457
    ## # … with 34 more rows
…
    ## `summarise()` has grouped output by 'race_ethnicity'. You can override using the `.groups` argument.

``` r
timeseries_analysis %>% 
  count(severity_score, race_ethnicity) %>% 
  group_by(race_ethnicity) %>% 
  mutate(prop = n / sum(n))
```

    ## # A tibble: 33 × 4
    ## # Groups:   race_ethnicity [3]
    ##    severity_score race_ethnicity                n   prop
    ##             <dbl> <chr>                     <int>  <dbl>
    ##  1             35 Black or African American   596 0.101 
    ##  2             35 Caucasian                  3349 0.108 
    ##  3             35 Hispanic                    442 0.0695
    ##  4             40 Black or African American   323 0.0545
    ##  5             40 Caucasian                  1887 0.0609
    ##  6             40 Hispanic                    226 0.0355
    ##  7             43 Black or African American   148 0.0250
    ##  8             43 Caucasian                   840 0.0271
    ##  9             43 Hispanic                    141 0.0222
    ## 10             44 Black or African American   817 0.138 
    ## # … with 23 more rows
…
    ## `summarise()` has grouped output by 'baseline_va_r10', 'severity_score'. You can override using the `.groups` argument.

``` r
severity_race_va_10 %>% 
  arrange(desc(count))
```

    ## # A tibble: 669 × 6
    ##    baseline_va_r10 severity_score race_ethnicity count timepoint   va_plot
    ##              <dbl>          <dbl> <chr>          <int> <chr>         <dbl>
    ##  1              80             73 Caucasian       2863 baseline_va    79.3
    ##  2              80             73 Caucasian       2863 one_year_va    76.2
    ##  3              80             73 Caucasian       2863 two_year_va    74.8
    ##  4              60             73 Caucasian       2648 baseline_va    61.1
    ##  5              60             73 Caucasian       2648 one_year_va    64.0
    ##  6              60             73 Caucasian       2648 two_year_va    64.1
    ##  7              80             44 Caucasian       1729 baseline_va    78.9
    ##  8              80             44 Caucasian       1729 one_year_va    76.9
    ##  9              80             44 Caucasian       1729 two_year_va    75.4
    ## 10              70             73 Caucasian       1532 baseline_va    70.0
    ## # … with 659 more rows
…
treatment_sev_race %>% 
  arrange(desc(severity_score, race_ethnicity))
```

    ## # A tibble: 33 × 5
    ##    severity_score race_ethnicity            proc_group_28  prop count
    ##             <dbl> <chr>                     <chr>         <dbl> <int>
    ##  1             85 Black or African American antivegf          1    13
    ##  2             85 Caucasian                 antivegf          1    16
    ##  3             85 Hispanic                  antivegf          1     9
    ##  4             81 Black or African American antivegf          1    16
    ##  5             81 Caucasian                 antivegf          1    34
    ##  6             81 Hispanic                  antivegf          1    11
    ##  7             78 Black or African American antivegf          1   863
    ##  8             78 Caucasian                 antivegf          1  4075
    ##  9             78 Hispanic                  antivegf          1  1276
    ## 10             73 Black or African American antivegf          1  1795
    ## # … with 23 more rows
…
drug_sev_race %>% 
  arrange(desc(severity_score, race_ethnicity))
```

    ## # A tibble: 129 × 5
    ##    severity_score race_ethnicity            vegf_group_365   prop count
    ##             <dbl> <chr>                     <chr>           <dbl> <int>
    ##  1             85 Black or African American Avastin        0.8        8
    ##  2             85 Black or African American combo          0.2        2
    ##  3             85 Caucasian                 Avastin        0.6        9
    ##  4             85 Caucasian                 combo          0.2        3
    ##  5             85 Caucasian                 Eylea          0.133      2
    ##  6             85 Caucasian                 Lucentis       0.0667     1
    ##  7             85 Hispanic                  Avastin        0.333      3
    ##  8             85 Hispanic                  combo          0.333      3
    ##  9             85 Hispanic                  Eylea          0.333      3
    ## 10             81 Black or African American Avastin        0.533      8
    ## # … with 119 more rows
…
drug_sev_cat_race %>% 
  arrange(desc(vision_category, race_ethnicity))
```

    ## # A tibble: 108 × 5
    ##    vision_category    race_ethnicity            vegf_group_365   prop count
    ##    <chr>              <chr>                     <chr>           <dbl> <int>
    ##  1 8 - PDR with edema Black or African American Avastin        0.588    446
    ##  2 8 - PDR with edema Black or African American combo          0.182    138
    ##  3 8 - PDR with edema Black or African American Eylea          0.146    111
    ##  4 8 - PDR with edema Black or African American Lucentis       0.0831    63
    ##  5 8 - PDR with edema Caucasian                 Avastin        0.506   1848
    ##  6 8 - PDR with edema Caucasian                 combo          0.191    699
    ##  7 8 - PDR with edema Caucasian                 Eylea          0.209    762
    ##  8 8 - PDR with edema Caucasian                 Lucentis       0.0939   343
    ##  9 8 - PDR with edema Hispanic                  Avastin        0.678    729
    ## 10 8 - PDR with edema Hispanic                  combo          0.156    168
    ## # … with 98 more rows
…
drug_va_race %>% 
  arrange(desc(baseline_va_r10, race_ethnicity))
```

    ## # A tibble: 94 × 5
    ##    baseline_va_r10 race_ethnicity            vegf_group_365   prop count
    ##              <dbl> <chr>                     <chr>           <dbl> <int>
    ##  1             100 Black or African American Eylea          1          2
    ##  2             100 Hispanic                  Avastin        1          1
    ##  3              90 Black or African American Avastin        0.4        2
    ##  4              90 Black or African American combo          0.2        1
    ##  5              90 Black or African American Eylea          0.2        1
    ##  6              90 Black or African American Lucentis       0.2        1
    ##  7              90 Caucasian                 Avastin        0.452     19
    ##  8              90 Caucasian                 combo          0.0952     4
    ##  9              90 Caucasian                 Eylea          0.238     10
    ## 10              90 Caucasian                 Lucentis       0.214      9
    ## # … with 84 more rows
…
drug_sev_cat_insurance %>% 
  arrange(desc(vision_category, insurance))
```

    ## # A tibble: 107 × 5
    ##    vision_category    insurance vegf_group_365   prop count
    ##    <chr>              <chr>     <chr>           <dbl> <int>
    ##  1 8 - PDR with edema Medicaid  Avastin        0.680    329
    ##  2 8 - PDR with edema Medicaid  combo          0.151     73
    ##  3 8 - PDR with edema Medicaid  Eylea          0.118     57
    ##  4 8 - PDR with edema Medicaid  Lucentis       0.0517    25
    ##  5 8 - PDR with edema Medicare  Avastin        0.528   1561
    ##  6 8 - PDR with edema Medicare  combo          0.185    547
    ##  7 8 - PDR with edema Medicare  Eylea          0.197    583
    ##  8 8 - PDR with edema Medicare  Lucentis       0.0890   263
    ##  9 8 - PDR with edema Private   Avastin        0.535    824
    ## 10 8 - PDR with edema Private   combo          0.192    296
    ## # … with 97 more rows
…
drug_sev_race_ins %>% 
  arrange(desc(severity_score, race_ethnicity, insurance))
```

    ## # A tibble: 563 × 6
    ##    severity_score race_ethnicity      insurance   vegf_group_28  prop count
    ##             <dbl> <chr>               <chr>       <chr>         <dbl> <int>
    ##  1             85 Black or African A… Medicare    Avastin       1         6
    ##  2             85 Black or African A… Private     Avastin       1         6
    ##  3             85 Black or African A… Medicaid    Lucentis      1         1
    ##  4             85 Caucasian           Medicaid    Avastin       1         1
    ##  5             85 Caucasian           Medicare    Avastin       0.571     4
    ##  6             85 Caucasian           Private     Avastin       1         7
    ##  7             85 Caucasian           Unknown/Mi… Avastin       1         1
    ##  8             85 Caucasian           Medicare    Eylea         0.286     2
    ##  9             85 Caucasian           Medicare    Lucentis      0.143     1
    ## 10             85 Hispanic            Medicare    Avastin       0.6       3
    ## # … with 553 more rows
…
severity_race_vision <-
  timeseries_analysis %>% 
  group_by(race_ethnicity, baseline_va_letter) %>%
  summarize(avg_severity = mean(severity_score), count = n()) %>% 
  filter(count > 100) %>% 
  arrange(desc(avg_severity))
```

    ## `summarise()` has grouped output by 'race_ethnicity'. You can override using the `.groups` argument.

``` r
severity_race_vision
```

    ## # A tibble: 36 × 4
    ## # Groups:   race_ethnicity [3]
    ##    race_ethnicity            baseline_va_letter avg_severity count
    ##    <chr>                                  <dbl>        <dbl> <int>
    ##  1 Hispanic                                  40         65.6   140
    ##  2 Hispanic                                  35         64.1   373
    ##  3 Hispanic                                  50         64.0   348
    ##  4 Hispanic                                  55         63.9   355
    ##  5 Hispanic                                  61         63.3   616
    ##  6 Hispanic                                  85         62.5   374
    ##  7 Caucasian                                 45         62.4   161
    ##  8 Hispanic                                  65         62.3   847
    ##  9 Black or African American                 35         62.2   317
    ## 10 Hispanic                                  58         62.1   381
    ## # … with 26 more rows
…
